{
	"configurations" : 
	[
		{
			"directories" : 
			[
				{
					"build" : ".",
					"minimumCMakeVersion" : 
					{
						"string" : "3.5"
					},
					"projectIndex" : 0,
					"source" : ".",
					"targetIndexes" : 
					[
						0
					]
				}
			],
			"name" : "Debug",
			"projects" : 
			[
				{
					"directoryIndexes" : 
					[
						0
					],
					"name" : "task1",
					"targetIndexes" : 
					[
						0
					]
				}
			],
			"targets" : 
			[
				{
					"directoryIndex" : 0,
					"id" : "task1::@6890427a1f51a3e7e1df",
					"jsonFile" : "target-task1-Debug-16cb364a3359e5b771c6.json",
					"name" : "task1",
					"projectIndex" : 0
				}
			]
		}
	],
	"kind" : "codemodel",
	"paths" : 
	{
		"build" : "/run/media/sadhu/4C645B0769F00A32/skillbox/C++/Homework24/build-task1-Desktop-Debug",
		"source" : "/run/media/sadhu/4C645B0769F00A32/skillbox/C++/Homework24/task1"
	},
	"version" : 
	{
		"major" : 2,
		"minor" : 2
	}
}
